@startmindmap
caption Figure 1
title Relations et Indicateurs de Santé dans les Données de Diabète

* <&medical> "Indicateurs de Santé"
** <&heart> "HeartDiseaseorAttack"
*** <&plus> Positif
*** <&minus> Négatif
** <&gauge> "HighBP"
*** <&plus> Élevé
*** <&minus> Normal
** <&user-md> "CholCheck"
*** <&plus> Effectué
*** <&minus> Non effectué
** <&users> "Diabetes_binary"
*** <&plus> Diabète
*** <&minus> Non-diabétique
** <&tachometer> "BMI"
*** <&up> "Surpoids"
*** <&down> "Normal"
** <&smoking> "Smoker"
*** <&plus> Fumeur
*** <&minus> Non-fumeur
** <&warning> "Stroke"
*** <&plus> Risque
*** <&minus> Sans risque

header
Relations et Catégorisation des Indicateurs de Santé
endheader

center footer Étude de l'impact des indicateurs de santé sur le diabète
@endmindmap
